#k_dasmazar
##d_udamsah
###c_azka_szel_udam
5434 = {

    # Misc
    culture = maqeti
    religion = cult_cult_of_maqet
	holding = castle_holding

    # History
}
6716 = {

    # Misc
    culture = maqeti
    religion = cult_cult_of_maqet
	holding = none

    # History
}
6717 = {

    # Misc
    culture = maqeti
    religion = cult_cult_of_maqet
	holding = city_holding

    # History
}
6718 = {

    # Misc
    culture = maqeti
    religion = cult_cult_of_maqet
	holding = church_holding

    # History
}
###c_dasmatus
5668 = {

    # Misc
    culture = maqeti
    religion = cult_cult_of_maqet
	holding = castle_holding

    # History
}
6719 = {

    # Misc
    culture = maqeti
    religion = cult_cult_of_maqet
	holding = city_holding

    # History
}
###c_maqetsad
5667 = {

    # Misc
    culture = maqeti
    religion = cult_cult_of_maqet
	holding = castle_holding

    # History
}
6720 = {

    # Misc
    culture = maqeti
    religion = cult_cult_of_maqet
	holding = none

    # History
}
###c_kerusah
5435 = {

    # Misc
    culture = maqeti
    religion = cult_cult_of_maqet
	holding = castle_holding

    # History
}
6721 = {

    # Misc
    culture = maqeti
    religion = cult_cult_of_maqet
	holding = none

    # History
}
6722 = {

    # Misc
    culture = maqeti
    religion = cult_cult_of_maqet
	holding = city_holding

    # History
}
###c_istanuz
5431 = {

    # Misc
    culture = maqeti
    religion = cult_cult_of_maqet
	holding = castle_holding

    # History
}
6723 = {

    # Misc
    culture = maqeti
    religion = cult_cult_of_maqet
	holding = none

    # History
}
##d_nohldrus
###c_agshzan
5437 = { #Agshzan

    # Misc
    culture = maqeti
    religion = cult_cult_of_maqet
	holding = castle_holding

    # History
}
6724 = {

    # Misc
    culture = maqeti
    religion = cult_cult_of_maqet
	holding = none

    # History
}
6725 = {

    # Misc
    culture = maqeti
    religion = cult_cult_of_maqet
	holding = none

    # History
}
###c_abadelu
5436 = { #Abadelu

    # Misc
    culture = maqeti
    religion = cult_cult_of_maqet
	holding = castle_holding

    # History
}
6726 = {

    # Misc
    culture = maqeti
    religion = cult_cult_of_maqet
	holding = none

    # History
}
6727 = {

    # Misc
    culture = maqeti
    religion = cult_cult_of_maqet
	holding = none

    # History
}
##d_dasmasih
###c_ergalagnu
566 = {

    # Misc
    culture = maqeti
    religion = cult_cult_of_maqet
	holding = castle_holding

    # History
}
6728 = {

    # Misc
    culture = maqeti
    religion = cult_cult_of_maqet
	holding = none

    # History
}
6729 = {

    # Misc
    culture = maqeti
    religion = cult_cult_of_maqet
	holding = none

    # History
}
###c_betharran
5432 = {

    # Misc
    culture = maqeti
    religion = cult_cult_of_maqet
	holding = castle_holding

    # History
}
6730 = {

    # Misc
    culture = maqeti
    religion = cult_cult_of_maqet
	holding = none

    # History
}
###c_tumhar
5433 = {

    # Misc
    culture = maqeti
    religion = cult_cult_of_maqet
	holding = castle_holding

    # History
}
6731 = {

    # Misc
    culture = maqeti
    religion = cult_cult_of_maqet
	holding = none

    # History
}
6732 = {

    # Misc
    culture = maqeti
    religion = cult_cult_of_maqet
	holding = none

    # History
}